<?xml version="1.0" encoding="UTF-8"?>
<svg width="1760px" height="695px" viewBox="0 0 1760 695" version="1.1" xmlns="http://www.w3.org/2000/svg" xmlns:xlink="http://www.w3.org/1999/xlink">
    <!-- Generator: Sketch 61.2 (89653) - https://sketch.com -->
    <title>Group 2</title>
    <desc>Created with Sketch.</desc>
    <defs>
        <rect id="path-1" x="0.838081957" y="0" width="1933.08043" height="695"></rect>
        <linearGradient x1="12.6341083%" y1="44.6594284%" x2="45.1456688%" y2="50.8549019%" id="linearGradient-3">
            <stop stop-color="#48DDA4" stop-opacity="0.100879589" offset="0%"></stop>
            <stop stop-color="#5044B8" offset="100%"></stop>
        </linearGradient>
        <linearGradient x1="134.288939%" y1="-9.23745259%" x2="24.5243351%" y2="59.8693248%" id="linearGradient-4">
            <stop stop-color="#48DDA4" stop-opacity="0.100879589" offset="0%"></stop>
            <stop stop-color="#5044B8" offset="100%"></stop>
        </linearGradient>
    </defs>
    <g id="Design" stroke="none" stroke-width="1" fill="none" fill-rule="evenodd">
        <g id="Final-landing">
            <g id="Group-2" transform="translate(-1.000000, -57.000000)">
                <g id="Group-15" transform="translate(0.000000, 57.000000)">
                    <mask id="mask-2" fill="white">
                        <use xlink:href="#path-1"></use>
                    </mask>
                    <use id="Rectangle" fill="#563EBF" xlink:href="#path-1"></use>
                    <path d="M2695.33396,1382.47153 C2493.689,1079.69227 2304.93054,976.64403 2129.05857,1073.32682 C2067.19182,1107.33707 2072.22599,1005.95113 2038.92059,1000.16752 C1930.20744,981.289077 1879.05795,808.080449 1699.56309,907.5 C1589.64277,968.38324 1525.80266,1002.69278 1460.47459,934.169098 C1386.44307,856.516235 1282.03299,762.187534 1013.49796,801.712943 C507.997952,876.116996 513.809278,157.056631 -11.1473959,398.986244 C-536.104069,640.915858 -791.222722,236.703202 -844.160185,271.856087 C-879.451828,295.291344 -819.810278,177.005982 -665.235537,-83 L1636.97801,-11.3390345 L3379.29703,42.8941027 C3363.57659,943.631368 3355.71636,1394 3355.71636,1394 C3355.71636,1394 3135.5889,1390.15718 2695.33396,1382.47153 Z" id="Path-5" fill="url(#linearGradient-3)" mask="url(#mask-2)"></path>
                </g>
                <path d="M1921.03353,0 C1824.8332,63.507027 1797.74081,241.648634 1839.75637,534.424822 C1902.77971,973.589103 1490.90711,360.418507 1277.22766,667.003805 L1232,752 L1921.03353,752 L1921.03353,0 Z" id="Path-8" fill="url(#linearGradient-4)" opacity="0.302943638"></path>
            </g>
        </g>
    </g>
</svg>